%YAML 1.1
%TAG !u! tag:unity3d.com,2011:
--- !u!1001 &2712267391792574974
PrefabInstance:
  m_ObjectHideFlags: 0
  serializedVersion: 2
  m_Modification:
    m_TransformParent: {fileID: 0}
    m_Modifications:
    - target: {fileID: 1939245619601230, guid: d2f2f92c494bd1c41970791d8041c000, type: 3}
      propertyPath: m_Name
      value: fireball-blue-tail-big
      objectReference: {fileID: 0}
    - target: {fileID: 4586067091643388, guid: d2f2f92c494bd1c41970791d8041c000, type: 3}
      propertyPath: m_LocalPosition.x
      value: -13.921114
      objectReference: {fileID: 0}
    - target: {fileID: 4586067091643388, guid: d2f2f92c494bd1c41970791d8041c000, type: 3}
      propertyPath: m_LocalPosition.y
      value: -5.864722
      objectReference: {fileID: 0}
    - target: {fileID: 4586067091643388, guid: d2f2f92c494bd1c41970791d8041c000, type: 3}
      propertyPath: m_LocalPosition.z
      value: 0
      objectReference: {fileID: 0}
    - target: {fileID: 4586067091643388, guid: d2f2f92c494bd1c41970791d8041c000, type: 3}
      propertyPath: m_LocalRotation.x
      value: 0
      objectReference: {fileID: 0}
    - target: {fileID: 4586067091643388, guid: d2f2f92c494bd1c41970791d8041c000, type: 3}
      propertyPath: m_LocalRotation.y
      value: 0
      objectReference: {fileID: 0}
    - target: {fileID: 4586067091643388, guid: d2f2f92c494bd1c41970791d8041c000, type: 3}
      propertyPath: m_LocalRotation.z
      value: 0
      objectReference: {fileID: 0}
    - target: {fileID: 4586067091643388, guid: d2f2f92c494bd1c41970791d8041c000, type: 3}
      propertyPath: m_LocalRotation.w
      value: 1
      objectReference: {fileID: 0}
    - target: {fileID: 4586067091643388, guid: d2f2f92c494bd1c41970791d8041c000, type: 3}
      propertyPath: m_RootOrder
      value: 0
      objectReference: {fileID: 0}
    - target: {fileID: 4586067091643388, guid: d2f2f92c494bd1c41970791d8041c000, type: 3}
      propertyPath: m_LocalEulerAnglesHint.x
      value: 0
      objectReference: {fileID: 0}
    - target: {fileID: 4586067091643388, guid: d2f2f92c494bd1c41970791d8041c000, type: 3}
      propertyPath: m_LocalEulerAnglesHint.y
      value: 0
      objectReference: {fileID: 0}
    - target: {fileID: 4586067091643388, guid: d2f2f92c494bd1c41970791d8041c000, type: 3}
      propertyPath: m_LocalEulerAnglesHint.z
      value: 0
      objectReference: {fileID: 0}
    m_RemovedComponents: []
  m_SourcePrefab: {fileID: 100100000, guid: d2f2f92c494bd1c41970791d8041c000, type: 3}
